\beamer@endinputifotherversion {3.36pt}
\beamer@sectionintoc {1}{Posgres - sequelize-cli}{3}{0}{1}
\beamer@sectionintoc {2}{MongoDB}{4}{0}{2}
\beamer@subsectionintoc {2}{1}{MongoDB - Connect}{5}{0}{2}
\beamer@subsectionintoc {2}{2}{MongoDB - Create database/show collections}{6}{0}{2}
\beamer@subsectionintoc {2}{3}{Create, Read, Update, Delete}{7}{0}{2}
